puvm/src/ch7/section7.2/top_tb.vcd
$date
	Wed Mar 10 10:44:43 2021
$end

$version
	Synopsys VCS version L-2016.06_Full64
$end

$timescale
	1ps
$end

$comment Csum: 1 87d9864e4757d835 $end


$scope module top_tb $end
$var reg 1 ! clk $end
$var reg 1 " rst_n $end
$var reg 8 # rxd [7:0] $end
$var reg 1 $ rx_dv $end
$var wire 8 % txd [7:0] $end
$var wire 1 & tx_en $end

$scope begin unnamed$$_vcs_4 $end
$upscope $end


$scope begin unnamed$$_vcs_0 $end
$upscope $end


$scope begin unnamed$$_vcs_1 $end
$upscope $end


$scope begin unnamed$$_vcs_2 $end
$upscope $end


$scope begin unnamed$$_vcs_3 $end
$upscope $end


$scope module input_if $end
$var wire 1 ' clk $end
$var wire 1 ( rst_n $end
$var reg 8 ) data [7:0] $end
$var reg 1 * valid $end
$upscope $end


$scope module output_if $end
$var wire 1 ' clk $end
$var wire 1 ( rst_n $end
$var reg 8 + data [7:0] $end
$var reg 1 , valid $end
$upscope $end


$scope module b_if $end
$var wire 1 ' clk $end
$var wire 1 ( rst_n $end
$var reg 1 - bus_cmd_valid $end
$var reg 1 . bus_op $end
$var reg 16 / bus_addr [15:0] $end
$var reg 16 0 bus_wr_data [15:0] $end
$var reg 16 1 bus_rd_data [15:0] $end
$upscope $end


$scope module my_dut $end
$var wire 1 ' clk $end
$var wire 1 ( rst_n $end
$var wire 1 2 bus_cmd_valid $end
$var wire 1 3 bus_op $end
$var wire 16 4 bus_addr [15:0] $end
$var wire 16 5 bus_wr_data [15:0] $end
$var reg 16 6 bus_rd_data [15:0] $end
$var wire 8 7 rxd [7:0] $end
$var wire 1 8 rx_dv $end
$var reg 8 9 txd [7:0] $end
$var reg 1 : tx_en $end
$var reg 1 ; invert $end
$upscope $end

$upscope $end

$enddefinitions $end

#0
$dumpvars
0!
0"
x$
z&
bxxxxxxxx #
bzzzzzzzz %
bxxxxxxxx )
bxxxxxxxx +
bxxxxxxxxxxxxxxxx 1
b0000000000000000 0
b0000000000000000 /
x;
x:
bxxxxxxxxxxxxxxxx 6
bxxxxxxxx 9
0'
0(
b0000000000000000 4
b0000000000000000 5
bxxxxxxxx 7
02
03
x8
x*
x,
0-
0.
$end
#100000
1!
1'
b00000000 9
b00000000 +
0:
0,
0;
b0000000000000000 6
b0000000000000000 1
#200000
0!
0'
#300000
1!
1'
#400000
0!
0'
#500000
1!
1'
#600000
0!
0'
#700000
1!
1'
#800000
0!
0'
#900000
1!
1'
#1000000
1"
1(
0!
0'
#1100000
1!
1'
bxxxxxxxx 9
bxxxxxxxx +
x:
x,
#1200000
0!
0'
#1300000
1!
1'
b0000000000001001 /
b0000000000001001 4
1-
12
#1400000
0!
0'
#1500000
1!
1'
0-
02
b0000000000000000 /
b0000000000000000 4
#1600000
0!
0'
#1700000
1!
1'
#1800000
0!
0'
#1900000
1!
1'
b0000000000001001 /
b0000000000001001 4
1-
12
1.
13
b0000000000000001 0
b0000000000000001 5
#2000000
0!
0'
#2100000
1!
1'
0-
02
0.
03
b0000000000000000 /
b0000000000000000 4
b0000000000000000 0
b0000000000000000 5
1;
#2200000
0!
0'
#2300000
1!
1'
#2400000
0!
0'
#2500000
1!
1'
b0000000000001001 /
b0000000000001001 4
1-
12
#2600000
0!
0'
#2700000
1!
1'
0-
02
b0000000000000000 /
b0000000000000000 4
b0000000000000001 6
b0000000000000001 1
#2800000
0!
0'
#2900000
1!
1'
0*
08
b00000000 )
b00000000 7
#3000000
0!
0'
#3100000
1!
1'
b0000000000001001 /
b0000000000001001 4
1-
12
b11111111 9
b11111111 +
0:
0,
#3200000
0!
0'
#3300000
1!
1'
0-
02
b0000000000000000 /
b0000000000000000 4
