puvm/src/ch7/section7.1/7.1.1/top_tb.vcd
$date
	Wed Mar 10 10:24:36 2021
$end

$version
	Synopsys VCS version L-2016.06_Full64
$end

$timescale
	1ps
$end

$comment Csum: 1 87d9864e4757d835 $end


$scope module top_tb $end
$var reg 1 ! clk $end
$var reg 1 " rst_n $end
$var reg 8 # rxd [7:0] $end
$var reg 1 $ rx_dv $end
$var wire 8 % txd [7:0] $end
$var wire 1 & tx_en $end

$scope begin unnamed$$_vcs_4 $end
$upscope $end


$scope begin unnamed$$_vcs_0 $end
$upscope $end


$scope begin unnamed$$_vcs_1 $end
$upscope $end


$scope begin unnamed$$_vcs_2 $end
$upscope $end


$scope begin unnamed$$_vcs_3 $end
$upscope $end


$scope module input_if $end
$var wire 1 ' clk $end
$var wire 1 ( rst_n $end
$var reg 8 ) data [7:0] $end
$var reg 1 * valid $end
$upscope $end


$scope module output_if $end
$var wire 1 ' clk $end
$var wire 1 ( rst_n $end
$var reg 8 + data [7:0] $end
$var reg 1 , valid $end
$upscope $end


$scope module b_if $end
$var wire 1 ' clk $end
$var wire 1 ( rst_n $end
$var reg 1 - bus_cmd_valid $end
$var reg 1 . bus_op $end
$var reg 16 / bus_addr [15:0] $end
$var reg 16 0 bus_wr_data [15:0] $end
$var reg 16 1 bus_rd_data [15:0] $end
$upscope $end


$scope module my_dut $end
$var wire 1 ' clk $end
$var wire 1 ( rst_n $end
$var wire 1 2 bus_cmd_valid $end
$var wire 1 3 bus_op $end
$var wire 16 4 bus_addr [15:0] $end
$var wire 16 5 bus_wr_data [15:0] $end
$var reg 16 6 bus_rd_data [15:0] $end
$var wire 8 7 rxd [7:0] $end
$var wire 1 8 rx_dv $end
$var reg 8 9 txd [7:0] $end
$var reg 1 : tx_en $end
$var reg 1 ; invert $end
$upscope $end

$upscope $end

$enddefinitions $end

#0
$dumpvars
0!
0"
x$
z&
bxxxxxxxx #
bzzzzzzzz %
b00000000 )
bxxxxxxxx +
bxxxxxxxxxxxxxxxx 1
b0000000000000000 0
b0000000000000000 /
x;
x:
bxxxxxxxxxxxxxxxx 6
bxxxxxxxx 9
0'
0(
b0000000000000000 4
b0000000000000000 5
b00000000 7
02
03
08
0*
x,
0-
0.
$end
#100000
1!
1'
b00000000 9
b00000000 +
0:
0,
0;
b0000000000000000 6
b0000000000000000 1
#200000
0!
0'
#300000
1!
1'
#400000
0!
0'
#500000
1!
1'
#600000
0!
0'
#700000
1!
1'
#800000
0!
0'
#900000
1!
1'
#1000000
1"
1(
0!
0'
#1100000
1!
1'
#1200000
0!
0'
#1300000
1!
1'
b0000000000001001 /
b0000000000001001 4
1-
12
#1400000
0!
0'
#1500000
1!
1'
0-
02
b0000000000000000 /
b0000000000000000 4
#1600000
0!
0'
#1700000
1!
1'
#1800000
0!
0'
#1900000
1!
1'
b0000000000001001 /
b0000000000001001 4
1-
12
1.
13
b0000000000000001 0
b0000000000000001 5
#2000000
0!
0'
#2100000
1!
1'
0-
02
0.
03
b0000000000000000 /
b0000000000000000 4
b0000000000000000 0
b0000000000000000 5
1;
#2200000
0!
0'
#2300000
1!
1'
b11111111 9
b11111111 +
#2400000
0!
0'
#2500000
1!
1'
b0000000000001001 /
b0000000000001001 4
1-
12
#2600000
0!
0'
#2700000
1!
1'
0-
02
b0000000000000000 /
b0000000000000000 4
b0000000000000001 6
b0000000000000001 1
#2800000
0!
0'
#2900000
1!
1'
#3000000
0!
0'
#3100000
1!
1'
b0000000000001001 /
b0000000000001001 4
1-
12
1.
13
#3200000
0!
0'
#3300000
1!
1'
0-
02
0.
03
b0000000000000000 /
b0000000000000000 4
0;
#3400000
0!
0'
#3500000
1!
1'
b00000000 9
b00000000 +
#3600000
0!
0'
#3700000
1!
1'
b0000000000001001 /
b0000000000001001 4
1-
12
#3800000
0!
0'
#3900000
1!
1'
0-
02
b0000000000000000 /
b0000000000000000 4
b0000000000000000 6
b0000000000000000 1
#4000000
0!
0'
#4100000
1!
1'
#4200000
0!
0'
#4300000
1!
1'
#4400000
0!
0'
#4500000
1!
1'
#4600000
0!
0'
#4700000
1!
1'
#4800000
0!
0'
#4900000
1!
1'
1*
18
b11010111 )
b11010111 7
#5000000
0!
0'
#5100000
1!
1'
b00111010 )
b00111010 7
b11010111 9
b11010111 +
1:
1,
#5200000
0!
0'
#5300000
1!
1'
b11000100 )
b11000100 7
b00111010 9
b00111010 +
#5400000
0!
0'
#5500000
1!
1'
b11100111 )
b11100111 7
b11000100 9
b11000100 +
#5600000
0!
0'
#5700000
1!
1'
b00100001 )
b00100001 7
b11100111 9
b11100111 +
#5800000
0!
0'
#5900000
1!
1'
b00110010 )
b00110010 7
b00100001 9
b00100001 +
#6000000
0!
0'
#6100000
1!
1'
b11000111 )
b11000111 7
b00110010 9
b00110010 +
#6200000
0!
0'
#6300000
1!
1'
b11111000 )
b11111000 7
b11000111 9
b11000111 +
#6400000
0!
0'
#6500000
1!
1'
b11101010 )
b11101010 7
b11111000 9
b11111000 +
#6600000
0!
0'
#6700000
1!
1'
b00111011 )
b00111011 7
b11101010 9
b11101010 +
#6800000
0!
0'
#6900000
1!
1'
b11111010 )
b11111010 7
b00111011 9
b00111011 +
#7000000
0!
0'
#7100000
1!
1'
b00000011 )
b00000011 7
b11111010 9
b11111010 +
#7200000
0!
0'
#7300000
1!
1'
b10010011 )
b10010011 7
b00000011 9
b00000011 +
#7400000
0!
0'
#7500000
1!
1'
b00000011 )
b00000011 7
b10010011 9
b10010011 +
#7600000
0!
0'
#7700000
1!
1'
b01111001 )
b01111001 7
b00000011 9
b00000011 +
#7800000
0!
0'
#7900000
1!
1'
b00001100 )
b00001100 7
b01111001 9
b01111001 +
#8000000
0!
0'
#8100000
1!
1'
b00100000 )
b00100000 7
b00001100 9
b00001100 +
#8200000
0!
0'
#8300000
1!
1'
b00000001 )
b00000001 7
b00100000 9
b00100000 +
#8400000
0!
0'
#8500000
1!
1'
b00100111 )
b00100111 7
b00000001 9
b00000001 +
#8600000
0!
0'
#8700000
1!
1'
b10100001 )
b10100001 7
b00100111 9
b00100111 +
#8800000
0!
0'
#8900000
1!
1'
b00110001 )
b00110001 7
b10100001 9
b10100001 +
#9000000
0!
0'
#9100000
1!
1'
b11001100 )
b11001100 7
b00110001 9
b00110001 +
#9200000
0!
0'
#9300000
1!
1'
b01010110 )
b01010110 7
b11001100 9
b11001100 +
#9400000
0!
0'
#9500000
1!
1'
b00111000 )
b00111000 7
b01010110 9
b01010110 +
#9600000
0!
0'
#9700000
1!
1'
b10111110 )
b10111110 7
b00111000 9
b00111000 +
#9800000
0!
0'
#9900000
1!
1'
b00001101 )
b00001101 7
b10111110 9
b10111110 +
#10000000
0!
0'
#10100000
1!
1'
b11100110 )
b11100110 7
b00001101 9
b00001101 +
#10200000
0!
0'
#10300000
1!
1'
b01110010 )
b01110010 7
b11100110 9
b11100110 +
#10400000
0!
0'
#10500000
1!
1'
b00100101 )
b00100101 7
b01110010 9
b01110010 +
#10600000
0!
0'
#10700000
1!
1'
b00110110 )
b00110110 7
b00100101 9
b00100101 +
#10800000
0!
0'
#10900000
1!
1'
b10111101 )
b10111101 7
b00110110 9
b00110110 +
#11000000
0!
0'
#11100000
1!
1'
b11011000 )
b11011000 7
b10111101 9
b10111101 +
#11200000
0!
0'
#11300000
1!
1'
b00101100 )
b00101100 7
b11011000 9
b11011000 +
#11400000
0!
0'
#11500000
1!
1'
b01001110 )
b01001110 7
b00101100 9
b00101100 +
#11600000
0!
0'
#11700000
1!
1'
b11100011 )
b11100011 7
b01001110 9
b01001110 +
#11800000
0!
0'
#11900000
1!
1'
b10000000 )
b10000000 7
b11100011 9
b11100011 +
#12000000
0!
0'
#12100000
1!
1'
b01001011 )
b01001011 7
b10000000 9
b10000000 +
#12200000
0!
0'
#12300000
1!
1'
b11101111 )
b11101111 7
b01001011 9
b01001011 +
#12400000
0!
0'
#12500000
1!
1'
b10011010 )
b10011010 7
b11101111 9
b11101111 +
#12600000
0!
0'
#12700000
1!
1'
b01001110 )
b01001110 7
b10011010 9
b10011010 +
#12800000
0!
0'
#12900000
1!
1'
b11100100 )
b11100100 7
b01001110 9
b01001110 +
#13000000
0!
0'
#13100000
1!
1'
b10001100 )
b10001100 7
b11100100 9
b11100100 +
#13200000
0!
0'
#13300000
1!
1'
b11001011 )
b11001011 7
b10001100 9
b10001100 +
#13400000
0!
0'
#13500000
1!
1'
b01000100 )
b01000100 7
b11001011 9
b11001011 +
#13600000
0!
0'
#13700000
1!
1'
b10111100 )
b10111100 7
b01000100 9
b01000100 +
#13800000
0!
0'
#13900000
1!
1'
b00110100 )
b00110100 7
b10111100 9
b10111100 +
#14000000
0!
0'
#14100000
1!
1'
b10110000 )
b10110000 7
b00110100 9
b00110100 +
#14200000
0!
0'
#14300000
1!
1'
b10000111 )
b10000111 7
b10110000 9
b10110000 +
#14400000
0!
0'
#14500000
1!
1'
b11010111 )
b11010111 7
b10000111 9
b10000111 +
#14600000
0!
0'
#14700000
1!
1'
b10000011 )
b10000011 7
b11010111 9
b11010111 +
#14800000
0!
0'
#14900000
1!
1'
b01110000 )
b01110000 7
b10000011 9
b10000011 +
#15000000
0!
0'
#15100000
1!
1'
b10110111 )
b10110111 7
b01110000 9
b01110000 +
#15200000
0!
0'
#15300000
1!
1'
b01111111 )
b01111111 7
b10110111 9
b10110111 +
#15400000
0!
0'
#15500000
1!
1'
b01110111 )
b01110111 7
b01111111 9
b01111111 +
#15600000
0!
0'
#15700000
1!
1'
b01101100 )
b01101100 7
b01110111 9
b01110111 +
#15800000
0!
0'
#15900000
1!
1'
b00010100 )
b00010100 7
b01101100 9
b01101100 +
#16000000
0!
0'
#16100000
1!
1'
b00100101 )
b00100101 7
b00010100 9
b00010100 +
#16200000
0!
0'
#16300000
1!
1'
b10000100 )
b10000100 7
b00100101 9
b00100101 +
#16400000
0!
0'
#16500000
1!
1'
b10011011 )
b10011011 7
b10000100 9
b10000100 +
#16600000
0!
0'
#16700000
1!
1'
b10111100 )
b10111100 7
b10011011 9
b10011011 +
#16800000
0!
0'
#16900000
1!
1'
b11111110 )
b11111110 7
b10111100 9
b10111100 +
#17000000
0!
0'
#17100000
1!
1'
b01010100 )
b01010100 7
b11111110 9
b11111110 +
#17200000
0!
0'
#17300000
1!
1'
b10010100 )
b10010100 7
b01010100 9
b01010100 +
#17400000
0!
0'
#17500000
1!
1'
b00010110 )
b00010110 7
b10010100 9
b10010100 +
#17600000
0!
0'
#17700000
1!
1'
b01000000 )
b01000000 7
b00010110 9
b00010110 +
#17800000
0!
0'
#17900000
1!
1'
b01101010 )
b01101010 7
b01000000 9
b01000000 +
#18000000
0!
0'
#18100000
1!
1'
b10100001 )
b10100001 7
b01101010 9
b01101010 +
#18200000
0!
0'
#18300000
1!
1'
b11011011 )
b11011011 7
b10100001 9
b10100001 +
#18400000
0!
0'
#18500000
1!
1'
b00000110 )
b00000110 7
b11011011 9
b11011011 +
#18600000
0!
0'
#18700000
1!
1'
b10010100 )
b10010100 7
b00000110 9
b00000110 +
#18800000
0!
0'
#18900000
1!
1'
b00110011 )
b00110011 7
b10010100 9
b10010100 +
#19000000
0!
0'
#19100000
1!
1'
b10100101 )
b10100101 7
b00110011 9
b00110011 +
#19200000
0!
0'
#19300000
1!
1'
b00111011 )
b00111011 7
b10100101 9
b10100101 +
#19400000
0!
0'
#19500000
1!
1'
b01000100 )
b01000100 7
b00111011 9
b00111011 +
#19600000
0!
0'
#19700000
1!
1'
b01000010 )
b01000010 7
b01000100 9
b01000100 +
#19800000
0!
0'
#19900000
1!
1'
b00001101 )
b00001101 7
b01000010 9
b01000010 +
#20000000
0!
0'
#20100000
1!
1'
b10111110 )
b10111110 7
b00001101 9
b00001101 +
#20200000
0!
0'
#20300000
1!
1'
b01110100 )
b01110100 7
b10111110 9
b10111110 +
#20400000
0!
0'
#20500000
1!
1'
b10010101 )
b10010101 7
b01110100 9
b01110100 +
#20600000
0!
0'
#20700000
1!
1'
b10001011 )
b10001011 7
b10010101 9
b10010101 +
#20800000
0!
0'
#20900000
1!
1'
b11101001 )
b11101001 7
b10001011 9
b10001011 +
#21000000
0!
0'
#21100000
1!
1'
b00000110 )
b00000110 7
b11101001 9
b11101001 +
#21200000
0!
0'
#21300000
1!
1'
b10111000 )
b10111000 7
b00000110 9
b00000110 +
#21400000
0!
0'
#21500000
1!
1'
b11101001 )
b11101001 7
b10111000 9
b10111000 +
#21600000
0!
0'
#21700000
1!
1'
b10111111 )
b10111111 7
b11101001 9
b11101001 +
#21800000
0!
0'
#21900000
1!
1'
b01111110 )
b01111110 7
b10111111 9
b10111111 +
#22000000
0!
0'
#22100000
1!
1'
b01000001 )
b01000001 7
b01111110 9
b01111110 +
#22200000
0!
0'
#22300000
1!
1'
b01101011 )
b01101011 7
b01000001 9
b01000001 +
#22400000
0!
0'
#22500000
1!
1'
b10111111 )
b10111111 7
b01101011 9
b01101011 +
#22600000
0!
0'
#22700000
1!
1'
b10101111 )
b10101111 7
b10111111 9
b10111111 +
#22800000
0!
0'
#22900000
1!
1'
b00101001 )
b00101001 7
b10101111 9
b10101111 +
#23000000
0!
0'
#23100000
1!
1'
b01010101 )
b01010101 7
b00101001 9
b00101001 +
#23200000
0!
0'
#23300000
1!
1'
b10000101 )
b10000101 7
b01010101 9
b01010101 +
#23400000
0!
0'
#23500000
1!
1'
b01110001 )
b01110001 7
b10000101 9
b10000101 +
#23600000
0!
0'
#23700000
1!
1'
b11001100 )
b11001100 7
b01110001 9
b01110001 +
#23800000
0!
0'
#23900000
1!
1'
b10000110 )
b10000110 7
b11001100 9
b11001100 +
#24000000
0!
0'
#24100000
1!
1'
b11111010 )
b11111010 7
b10000110 9
b10000110 +
#24200000
0!
0'
#24300000
1!
1'
b10101100 )
b10101100 7
b11111010 9
b11111010 +
#24400000
0!
0'
#24500000
1!
1'
b10001000 )
b10001000 7
b10101100 9
b10101100 +
#24600000
0!
0'
#24700000
1!
1'
b00100111 )
b00100111 7
b10001000 9
b10001000 +
#24800000
0!
0'
#24900000
1!
1'
b11100001 )
b11100001 7
b00100111 9
b00100111 +
#25000000
0!
0'
#25100000
1!
1'
b11000000 )
b11000000 7
b11100001 9
b11100001 +
#25200000
0!
0'
#25300000
1!
1'
b11010001 )
b11010001 7
b11000000 9
b11000000 +
#25400000
0!
0'
#25500000
1!
1'
b11001000 )
b11001000 7
b11010001 9
b11010001 +
#25600000
0!
0'
#25700000
1!
1'
b11000101 )
b11000101 7
b11001000 9
b11001000 +
#25800000
0!
0'
#25900000
1!
1'
b00100000 )
b00100000 7
b11000101 9
b11000101 +
#26000000
0!
0'
#26100000
1!
1'
b10010100 )
b10010100 7
b00100000 9
b00100000 +
#26200000
0!
0'
#26300000
1!
1'
b11000111 )
b11000111 7
b10010100 9
b10010100 +
#26400000
0!
0'
#26500000
1!
1'
b10110101 )
b10110101 7
b11000111 9
b11000111 +
#26600000
0!
0'
#26700000
1!
1'
b11000010 )
b11000010 7
b10110101 9
b10110101 +
#26800000
0!
0'
#26900000
1!
1'
b00000101 )
b00000101 7
b11000010 9
b11000010 +
#27000000
0!
0'
#27100000
1!
1'
b00101100 )
b00101100 7
b00000101 9
b00000101 +
#27200000
0!
0'
#27300000
1!
1'
b11010000 )
b11010000 7
b00101100 9
b00101100 +
#27400000
0!
0'
#27500000
1!
1'
b10100111 )
b10100111 7
b11010000 9
b11010000 +
#27600000
0!
0'
#27700000
1!
1'
b00010000 )
b00010000 7
b10100111 9
b10100111 +
#27800000
0!
0'
#27900000
1!
1'
b01101100 )
b01101100 7
b00010000 9
b00010000 +
#28000000
0!
0'
#28100000
1!
1'
b10101100 )
b10101100 7
b01101100 9
b01101100 +
#28200000
0!
0'
#28300000
1!
1'
b01000100 )
b01000100 7
b10101100 9
b10101100 +
#28400000
0!
0'
#28500000
1!
1'
b10001011 )
b10001011 7
b01000100 9
b01000100 +
#28600000
0!
0'
#28700000
1!
1'
b01000101 )
b01000101 7
b10001011 9
b10001011 +
#28800000
0!
0'
#28900000
1!
1'
b00110000 )
b00110000 7
b01000101 9
b01000101 +
#29000000
0!
0'
#29100000
1!
1'
b01000011 )
b01000011 7
b00110000 9
b00110000 +
#29200000
0!
0'
#29300000
1!
1'
b10000100 )
b10000100 7
b01000011 9
b01000011 +
#29400000
0!
0'
#29500000
1!
1'
b01000111 )
b01000111 7
b10000100 9
b10000100 +
#29600000
0!
0'
#29700000
1!
1'
b11011101 )
b11011101 7
b01000111 9
b01000111 +
#29800000
0!
0'
#29900000
1!
1'
b00111010 )
b00111010 7
b11011101 9
b11011101 +
#30000000
0!
0'
#30100000
1!
1'
b10011100 )
b10011100 7
b00111010 9
b00111010 +
#30200000
0!
0'
#30300000
1!
1'
b11111011 )
b11111011 7
b10011100 9
b10011100 +
#30400000
0!
0'
#30500000
1!
1'
b10100010 )
b10100010 7
b11111011 9
b11111011 +
#30600000
0!
0'
#30700000
1!
1'
b11100111 )
b11100111 7
b10100010 9
b10100010 +
#30800000
0!
0'
#30900000
1!
1'
b00100111 )
b00100111 7
b11100111 9
b11100111 +
#31000000
0!
0'
#31100000
1!
1'
b01111111 )
b01111111 7
b00100111 9
b00100111 +
#31200000
0!
0'
#31300000
1!
1'
b00000100 )
b00000100 7
b01111111 9
b01111111 +
#31400000
0!
0'
#31500000
1!
1'
b11001110 )
b11001110 7
b00000100 9
b00000100 +
#31600000
0!
0'
#31700000
1!
1'
b00000110 )
b00000110 7
b11001110 9
b11001110 +
#31800000
0!
0'
#31900000
1!
1'
b11010101 )
b11010101 7
b00000110 9
b00000110 +
#32000000
0!
0'
#32100000
1!
1'
b10100101 )
b10100101 7
b11010101 9
b11010101 +
#32200000
0!
0'
#32300000
1!
1'
b10010011 )
b10010011 7
b10100101 9
b10100101 +
#32400000
0!
0'
#32500000
1!
1'
b00001010 )
b00001010 7
b10010011 9
b10010011 +
#32600000
0!
0'
#32700000
1!
1'
b01001110 )
b01001110 7
b00001010 9
b00001010 +
#32800000
0!
0'
#32900000
1!
1'
b01111110 )
b01111110 7
b01001110 9
b01001110 +
#33000000
0!
0'
#33100000
1!
1'
b00111101 )
b00111101 7
b01111110 9
b01111110 +
#33200000
0!
0'
#33300000
1!
1'
b11111101 )
b11111101 7
b00111101 9
b00111101 +
#33400000
0!
0'
#33500000
1!
1'
b11111100 )
b11111100 7
b11111101 9
b11111101 +
#33600000
0!
0'
#33700000
1!
1'
b11101110 )
b11101110 7
b11111100 9
b11111100 +
#33800000
0!
0'
#33900000
1!
1'
b00001101 )
b00001101 7
b11101110 9
b11101110 +
#34000000
0!
0'
#34100000
1!
1'
b00010101 )
b00010101 7
b00001101 9
b00001101 +
#34200000
0!
0'
#34300000
1!
1'
b10010001 )
b10010001 7
b00010101 9
b00010101 +
#34400000
0!
0'
#34500000
1!
1'
b01101011 )
b01101011 7
b10010001 9
b10010001 +
#34600000
0!
0'
#34700000
1!
1'
b01100101 )
b01100101 7
b01101011 9
b01101011 +
#34800000
0!
0'
#34900000
1!
1'
b11110110 )
b11110110 7
b01100101 9
b01100101 +
#35000000
0!
0'
#35100000
1!
1'
b10110111 )
b10110111 7
b11110110 9
b11110110 +
#35200000
0!
0'
#35300000
1!
1'
b11010010 )
b11010010 7
b10110111 9
b10110111 +
#35400000
0!
0'
#35500000
1!
1'
b11010101 )
b11010101 7
b11010010 9
b11010010 +
#35600000
0!
0'
#35700000
1!
1'
b00110101 )
b00110101 7
b11010101 9
b11010101 +
#35800000
0!
0'
#35900000
1!
1'
b11001101 )
b11001101 7
b00110101 9
b00110101 +
#36000000
0!
0'
#36100000
1!
1'
b11100010 )
b11100010 7
b11001101 9
b11001101 +
#36200000
0!
0'
#36300000
1!
1'
b00100010 )
b00100010 7
b11100010 9
b11100010 +
#36400000
0!
0'
#36500000
1!
1'
b11100101 )
b11100101 7
b00100010 9
b00100010 +
#36600000
0!
0'
#36700000
1!
1'
b11110011 )
b11110011 7
b11100101 9
b11100101 +
#36800000
0!
0'
#36900000
1!
1'
b00011000 )
b00011000 7
b11110011 9
b11110011 +
#37000000
0!
0'
#37100000
1!
1'
b10101001 )
b10101001 7
b00011000 9
b00011000 +
#37200000
0!
0'
#37300000
1!
1'
b00111000 )
b00111000 7
b10101001 9
b10101001 +
#37400000
0!
0'
#37500000
1!
1'
b11010000 )
b11010000 7
b00111000 9
b00111000 +
#37600000
0!
0'
#37700000
1!
1'
b00011101 )
b00011101 7
b11010000 9
b11010000 +
#37800000
0!
0'
#37900000
1!
1'
b10010001 )
b10010001 7
b00011101 9
b00011101 +
#38000000
0!
0'
#38100000
1!
1'
b01000110 )
b01000110 7
b10010001 9
b10010001 +
#38200000
0!
0'
#38300000
1!
1'
b01110001 )
b01110001 7
b01000110 9
b01000110 +
#38400000
0!
0'
#38500000
1!
1'
b00100001 )
b00100001 7
b01110001 9
b01110001 +
#38600000
0!
0'
#38700000
1!
1'
b11000001 )
b11000001 7
b00100001 9
b00100001 +
#38800000
0!
0'
#38900000
1!
1'
b11110011 )
b11110011 7
b11000001 9
b11000001 +
#39000000
0!
0'
#39100000
1!
1'
b01101011 )
b01101011 7
b11110011 9
b11110011 +
#39200000
0!
0'
#39300000
1!
1'
b01100110 )
b01100110 7
b01101011 9
b01101011 +
#39400000
0!
0'
#39500000
1!
1'
b10000000 )
b10000000 7
b01100110 9
b01100110 +
#39600000
0!
0'
#39700000
1!
1'
b01000010 )
b01000010 7
b10000000 9
b10000000 +
#39800000
0!
0'
#39900000
1!
1'
b00111011 )
b00111011 7
b01000010 9
b01000010 +
#40000000
0!
0'
#40100000
1!
1'
b01110011 )
b01110011 7
b00111011 9
b00111011 +
#40200000
0!
0'
#40300000
1!
1'
b10100101 )
b10100101 7
b01110011 9
b01110011 +
#40400000
0!
0'
#40500000
1!
1'
b01011111 )
b01011111 7
b10100101 9
b10100101 +
#40600000
0!
0'
#40700000
1!
1'
b11011010 )
b11011010 7
b01011111 9
b01011111 +
#40800000
0!
0'
#40900000
1!
1'
b00010101 )
b00010101 7
b11011010 9
b11011010 +
#41000000
0!
0'
#41100000
1!
1'
b10001101 )
b10001101 7
b00010101 9
b00010101 +
#41200000
0!
0'
#41300000
1!
1'
b01000111 )
b01000111 7
b10001101 9
b10001101 +
#41400000
0!
0'
#41500000
1!
1'
b00110100 )
b00110100 7
b01000111 9
b01000111 +
#41600000
0!
0'
#41700000
1!
1'
b11000100 )
b11000100 7
b00110100 9
b00110100 +
#41800000
0!
0'
#41900000
1!
1'
b01001111 )
b01001111 7
b11000100 9
b11000100 +
#42000000
0!
0'
#42100000
1!
1'
b10101100 )
b10101100 7
b01001111 9
b01001111 +
#42200000
0!
0'
#42300000
1!
1'
b01011011 )
b01011011 7
b10101100 9
b10101100 +
#42400000
0!
0'
#42500000
1!
1'
b00101110 )
b00101110 7
b01011011 9
b01011011 +
#42600000
0!
0'
#42700000
1!
1'
b10001111 )
b10001111 7
b00101110 9
b00101110 +
#42800000
0!
0'
#42900000
1!
1'
b01001011 )
b01001011 7
b10001111 9
b10001111 +
#43000000
0!
0'
#43100000
1!
1'
b10001011 )
b10001011 7
b01001011 9
b01001011 +
#43200000
0!
0'
#43300000
1!
1'
b11100110 )
b11100110 7
b10001011 9
b10001011 +
#43400000
0!
0'
#43500000
1!
1'
b10111000 )
b10111000 7
b11100110 9
b11100110 +
#43600000
0!
0'
#43700000
1!
1'
b01010101 )
b01010101 7
b10111000 9
b10111000 +
#43800000
0!
0'
#43900000
1!
1'
b01100110 )
b01100110 7
b01010101 9
b01010101 +
#44000000
0!
0'
#44100000
1!
1'
b10111011 )
b10111011 7
b01100110 9
b01100110 +
#44200000
0!
0'
#44300000
1!
1'
b10110111 )
b10110111 7
b10111011 9
b10111011 +
#44400000
0!
0'
#44500000
1!
1'
b01010110 )
b01010110 7
b10110111 9
b10110111 +
#44600000
0!
0'
#44700000
1!
1'
b11010111 )
b11010111 7
b01010110 9
b01010110 +
#44800000
0!
0'
#44900000
1!
1'
b01001100 )
b01001100 7
b11010111 9
b11010111 +
#45000000
0!
0'
#45100000
1!
1'
b10100001 )
b10100001 7
b01001100 9
b01001100 +
#45200000
0!
0'
#45300000
1!
1'
b00000110 )
b00000110 7
b10100001 9
b10100001 +
#45400000
0!
0'
#45500000
1!
1'
b00111001 )
b00111001 7
b00000110 9
b00000110 +
#45600000
0!
0'
#45700000
1!
1'
b10111001 )
b10111001 7
b00111001 9
b00111001 +
#45800000
0!
0'
#45900000
1!
1'
b00010100 )
b00010100 7
b10111001 9
b10111001 +
#46000000
0!
0'
#46100000
1!
1'
b00111101 )
b00111101 7
b00010100 9
b00010100 +
#46200000
0!
0'
#46300000
1!
1'
b11000001 )
b11000001 7
b00111101 9
b00111101 +
#46400000
0!
0'
#46500000
1!
1'
b11011110 )
b11011110 7
b11000001 9
b11000001 +
#46600000
0!
0'
#46700000
1!
1'
b10001101 )
b10001101 7
b11011110 9
b11011110 +
#46800000
0!
0'
#46900000
1!
1'
b10100100 )
b10100100 7
b10001101 9
b10001101 +
#47000000
0!
0'
#47100000
1!
1'
b11010110 )
b11010110 7
b10100100 9
b10100100 +
#47200000
0!
0'
#47300000
1!
1'
b01011111 )
b01011111 7
b11010110 9
b11010110 +
#47400000
0!
0'
#47500000
1!
1'
b00111010 )
b00111010 7
b01011111 9
b01011111 +
#47600000
0!
0'
#47700000
1!
1'
b10001011 )
b10001011 7
b00111010 9
b00111010 +
#47800000
0!
0'
#47900000
1!
1'
b11101111 )
b11101111 7
b10001011 9
b10001011 +
#48000000
0!
0'
#48100000
1!
1'
b10011110 )
b10011110 7
b11101111 9
b11101111 +
#48200000
0!
0'
#48300000
1!
1'
b01101011 )
b01101011 7
b10011110 9
b10011110 +
#48400000
0!
0'
#48500000
1!
1'
b10101100 )
b10101100 7
b01101011 9
b01101011 +
#48600000
0!
0'
#48700000
1!
1'
b10111011 )
b10111011 7
b10101100 9
b10101100 +
#48800000
0!
0'
#48900000
1!
1'
b00100101 )
b00100101 7
b10111011 9
b10111011 +
#49000000
0!
0'
#49100000
1!
1'
b01101010 )
b01101010 7
b00100101 9
b00100101 +
#49200000
0!
0'
#49300000
1!
1'
b00000100 )
b00000100 7
b01101010 9
b01101010 +
#49400000
0!
0'
#49500000
1!
1'
b01101111 )
b01101111 7
b00000100 9
b00000100 +
#49600000
0!
0'
#49700000
1!
1'
b11001101 )
b11001101 7
b01101111 9
b01101111 +
#49800000
0!
0'
#49900000
1!
1'
b10010111 )
b10010111 7
b11001101 9
b11001101 +
#50000000
0!
0'
#50100000
1!
1'
b01010001 )
b01010001 7
b10010111 9
b10010111 +
#50200000
0!
0'
#50300000
1!
1'
b01010000 )
b01010000 7
b01010001 9
b01010001 +
#50400000
0!
0'
#50500000
1!
1'
b01000110 )
b01000110 7
b01010000 9
b01010000 +
#50600000
0!
0'
#50700000
1!
1'
b01110101 )
b01110101 7
b01000110 9
b01000110 +
#50800000
0!
0'
#50900000
1!
1'
b00011110 )
b00011110 7
b01110101 9
b01110101 +
#51000000
0!
0'
#51100000
1!
1'
b11110000 )
b11110000 7
b00011110 9
b00011110 +
#51200000
0!
0'
#51300000
1!
1'
b11011010 )
b11011010 7
b11110000 9
b11110000 +
#51400000
0!
0'
#51500000
1!
1'
b01011100 )
b01011100 7
b11011010 9
b11011010 +
#51600000
0!
0'
#51700000
1!
1'
b01110110 )
b01110110 7
b01011100 9
b01011100 +
#51800000
0!
0'
#51900000
1!
1'
b00000110 )
b00000110 7
b01110110 9
b01110110 +
#52000000
0!
0'
#52100000
1!
1'
b10110100 )
b10110100 7
b00000110 9
b00000110 +
#52200000
0!
0'
#52300000
1!
1'
b00111100 )
b00111100 7
b10110100 9
b10110100 +
#52400000
0!
0'
#52500000
1!
1'
b01100110 )
b01100110 7
b00111100 9
b00111100 +
#52600000
0!
0'
#52700000
1!
1'
b01110010 )
b01110010 7
b01100110 9
b01100110 +
#52800000
0!
0'
#52900000
1!
1'
b11111101 )
b11111101 7
b01110010 9
b01110010 +
#53000000
0!
0'
#53100000
1!
1'
b10011101 )
b10011101 7
b11111101 9
b11111101 +
#53200000
0!
0'
#53300000
1!
1'
b01001110 )
b01001110 7
b10011101 9
b10011101 +
#53400000
0!
0'
#53500000
1!
1'
b11100001 )
b11100001 7
b01001110 9
b01001110 +
#53600000
0!
0'
#53700000
1!
1'
b00010011 )
b00010011 7
b11100001 9
b11100001 +
#53800000
0!
0'
#53900000
1!
1'
b10011010 )
b10011010 7
b00010011 9
b00010011 +
#54000000
0!
0'
#54100000
1!
1'
b10010100 )
b10010100 7
b10011010 9
b10011010 +
#54200000
0!
0'
#54300000
1!
1'
b10111101 )
b10111101 7
b10010100 9
b10010100 +
#54400000
0!
0'
#54500000
1!
1'
b00010011 )
b00010011 7
b10111101 9
b10111101 +
#54600000
0!
0'
#54700000
1!
1'
b10111110 )
b10111110 7
b00010011 9
b00010011 +
#54800000
0!
0'
#54900000
1!
1'
b00001010 )
b00001010 7
b10111110 9
b10111110 +
#55000000
0!
0'
#55100000
1!
1'
b10011100 )
b10011100 7
b00001010 9
b00001010 +
#55200000
0!
0'
#55300000
1!
1'
b01000100 )
b01000100 7
b10011100 9
b10011100 +
#55400000
0!
0'
#55500000
1!
1'
b10011101 )
b10011101 7
b01000100 9
b01000100 +
#55600000
0!
0'
#55700000
1!
1'
b10101110 )
b10101110 7
b10011101 9
b10011101 +
#55800000
0!
0'
#55900000
1!
1'
b11000100 )
b11000100 7
b10101110 9
b10101110 +
#56000000
0!
0'
#56100000
1!
1'
b10101111 )
b10101111 7
b11000100 9
b11000100 +
#56200000
0!
0'
#56300000
1!
1'
b10011101 )
b10011101 7
b10101111 9
b10101111 +
#56400000
0!
0'
